<svg class="icon" width="16" height="12" viewBox="0 0 16 12" fill="none" xmlns="http://www.w3.org/2000/svg">
<path d="M11 1V3.5H9.5V2.5H7V9.5H8V11H4V9.5H5V2.5H2.5V3.5H1V1H11Z"/>
<path d="M12.0086 12L12 11L13.5 9.5C14 9 14.4008 8.58903 14.5135 8.37238C14.6263 8.15301 14.6826 7.9499 14.6826 7.76303C14.6826 7.51388 14.6171 7.31077 14.486 7.15369C14.3576 6.99391 14.174 6.91401 13.9355 6.91401C13.6707 6.91401 13.4688 7.00745 13.3299 7.19431C13.1935 7.37847 13.1254 7.62492 13.1254 7.93365H12.0086L12.0007 7.90928C11.9876 7.37576 12.1567 6.92485 12.508 6.55653C12.8619 6.18551 13.3377 6 13.9355 6C14.5253 6 14.9894 6.15843 15.3276 6.47529C15.6657 6.79215 15.8348 7.21462 15.8348 7.74272C15.8348 8.1002 15.7391 8.4306 15.5478 8.73392C15.359 9.03724 15.0444 9.43263 14.604 9.92011L13.5 11H14H15L15.3276 10.5051H16V12H12.0086Z"/>
</svg>
